src/frontend_tb/vsim.vcd
$date
	Fri Nov 15 15:15:28 2019
$end
$version
	ModelSim Version 2019.2
$end
$timescale
	1ns
$end
$scope module frontend_tb $end
$var reg 1 ! clk $end
$var reg 1 " rst_n $end
$var reg 1 # flush $end
$var reg 64 $ pc [63:0] $end
$var reg 1 % fetch_ready $end
$var reg 64 & addr [63:0] $end
$var reg 1 ' addr_valid $end
$var reg 1 ( addr_ready $end
$var reg 1 ) data_valid $end
$var reg 1 * data_ready $end
$var reg 32 + instruction [31:0] $end
$var reg 1 , issue_valid $end
$var reg 1 - issue_ready $end
$scope module dut_pc_gen_stage $end
$var reg 64 . next_pc [63:0] $end
$upscope $end
$scope module dut_fetch_stage $end
$var reg 1 / read_done $end
$var reg 1 0 read_req $end
$scope module u_ifu $end
$var reg 64 1 prev_pc_q [63:0] $end
$var reg 1 2 here $end
$var reg 1 3 will_be_here $end
$var reg 1 4 line_valid $end
$var integer 32 5 line_sel $end
$scope module u_fetch_controller $end
$var integer 32 6 present_state $end
$upscope $end
$upscope $end
$scope module u_icache_ifc $end
$var integer 32 7 present_state $end
$upscope $end
$upscope $end
$upscope $end
$enddefinitions $end
#0
b1 !
b0 "
b0 #
b0 $
b100 .
bx 6
b0 %
b0 1
b0 2
b1 3
bx 7
b0 &
b0 '
b0 (
b0 )
b0 *
b0 /
b0 0
b0 4
bx 5
b0 +
b0 ,
b1 -
b1 -
b0 #
b0 /
bx 5
b0 (
b0 )
b0 "
b1 !
b0 0
b0 '
b0 *
b0 ,
b0 %
bx 7
b0 4
bx 6
b0 1
b0 $
b0 2
b1 3
b0 &
b100 .
b0 +
#5
b0 !
#10
b1 !
#11
b1 "
#15
b0 !
#20
b1 !
bx 7
bx 6
b1 0
b1 %
b1 '
b1 (
#25
b0 !
#30
b1 !
b1 )
b0 (
bx 7
bx1xxxxx 6
b100 $
b100 &
b1000 .
b1 /
b0 0
b0 '
b1 *
b1 %
bx1xxxxx 5
b1 ,
b1 +
#35
b0 !
#40
b1 !
b0 )
b0 /
bx 5
b1 ,
b1 %
b10 +
bx 7
b1 4
bx0xxxx0xxx 6
b100 1
b1000 $
b1 2
b0 3
b1000 &
b1100 .
b0 *
#45
b0 !
#50
b1 !
b1000 1
b1100 $
b1100 &
b10000 .
b11 +
#55
b0 !
#60
b1 !
b1100 1
b10000 $
b10000 &
b10100 .
b100 +
#65
b0 !
#70
b1 !
b10000 1
b10100 $
b10100 &
b11000 .
b101 +
#75
b0 !
#80
b1 !
b10100 1
b11000 $
b11000 &
b11100 .
b110 +
#85
b0 !
#90
b1 !
b11000 1
b11100 $
b11100 &
b100000 .
b111 +
#95
b0 !
#100
b1 !
b11100 1
b100000 $
b100000 &
b100100 .
b1000 +
#105
b0 !
#110
b1 !
b100000 1
b100100 $
b100100 &
b101000 .
b1001 +
#115
b0 !
#120
b1 !
b100100 1
b101000 $
b101000 &
b101100 .
b1010 +
#125
b0 !
#130
b1 !
b101000 1
b101100 $
b101100 &
b110000 .
b1011 +
#135
b0 !
#140
b1 !
b101100 1
b110000 $
b110000 &
b110100 .
b1100 +
#145
b0 !
#150
b1 !
b110000 1
b110100 $
b110100 &
b111000 .
b1101 +
#155
b0 !
#160
b1 !
b110100 1
b111000 $
b111000 &
b111100 .
b1110 +
#165
b0 !
#170
b1 !
b111000 1
b111100 $
b111100 &
b1000000 .
b1111 +
#175
b0 !
#180
b1 !
b111100 1
b1000000 $
b0 2
b1000000 &
b1000100 .
b1 0
b10000 +
b1 '
b1 (
#185
b0 !
#190
b1 !
b1 )
b0 (
bx 7
bx1xxxxx 6
b1000000 1
b1000100 $
b1 3
b1000100 &
b1001000 .
b1 /
b0 0
b0 '
b1 *
b1 ,
b1 +
b1 %
bx1xxxxx 5
#195
b0 !
#200
b1 !
b0 )
b0 /
bx 5
b1 ,
b1 %
bx 7
bx0xxxx0xxx 6
b1000100 1
b1001000 $
b1 2
b0 3
b1001000 &
b1001100 .
b0 *
b10 +
#205
b0 !
#210
b1 !
b1001000 1
b1001100 $
b1001100 &
b1010000 .
b11 +
#215
b0 !
#220
b1 !
b1001100 1
b1010000 $
b1010000 &
b1010100 .
b100 +
#225
b0 !
#230
b1 !
b1010000 1
b1010100 $
b1010100 &
b1011000 .
b101 +
#235
b0 !
#240
b1 !
b1010100 1
b1011000 $
b1011000 &
b1011100 .
b110 +
#245
b0 !
#250
b1 !
b1011000 1
b1011100 $
b1011100 &
b1100000 .
b111 +
